%YAML 1.1
%TAG !u! tag:unity3d.com,2011:
--- !u!114 &11400000
MonoBehaviour:
  m_ObjectHideFlags: 0
  m_PrefabParentObject: {fileID: 0}
  m_PrefabInternal: {fileID: 0}
  m_GameObject: {fileID: 0}
  m_Enabled: 1
  m_EditorHideFlags: 0
  m_Script: {fileID: 11500000, guid: b7950b703e6850845be132ed51daf575, type: 3}
  m_Name: Carrousel
  m_EditorClassIdentifier: 
  propTag: 2
  sprite: {fileID: 21300000, guid: 295aaa177de749e4fbbf3d5f12814097, type: 3}
  effectRadius: 1.5
  clip: {fileID: 8300000, guid: c06fd6d6ff7877b449561052bb185fc9, type: 3}
